inode: 577153
Allocated
Group: 70
Generation Id: 1868780539
uid / gid: 1000 / 1000
mode: rrwxrwxrwx
Flags: Extents, 
size: 369489
num of links: 1

Inode Times:
Accessed:	2018-11-12 17:20:15.269646000 (STD)
File Modified:	2018-11-12 17:20:14.493644000 (STD)
Inode Modified:	2018-11-12 17:20:15.269646323 (STD)
File Created:	2018-11-12 17:20:15.269646323 (STD)

Direct Blocks:
2173169 2173170 2173171 2173172 2173173 2173174 2173175 2173176 
2173177 2173178 2173179 2173180 2173181 2173182 2173183 2173184 
2173185 2173186 2173187 2173188 2173189 2173190 2173191 2173192 
2173193 2173194 2173195 2173196 2173197 2173198 2173199 2173200 
2173201 2173202 2173203 2173204 2173205 2173206 2173207 2173208 
2173209 2173210 2173211 2173212 2173213 2173214 2173215 2173216 
2173217 2173218 2173219 2173220 2173221 2173222 2173223 2173224 
2173225 2173226 2173227 2173228 2173229 2173230 2173231 2173232 
2173233 2173234 2173235 2173236 2173237 2173238 2173239 2173240 
2173241 2173242 2173243 2173244 2173245 2173246 2173247 2173248 
2173249 2173250 2173251 2173252 2173253 2173254 2173255 2173256 
2173257 2173258 2173259 
